CENTER_ID|AREA_ID|AREA_NAME
47770100|01|가평군
41270100|02|고양시
42771400|03|과천시
42370200|04|광명시
46472000|05|광주시
47170200|06|구리시
43570100|07|군포시
41572800|08|김포시
47270100|09|남양주시
48370800|10|동두천시
42073600|11|부천시
46170000|12|성남시
44084101|13|수원시
42970100|14|시흥시
42570200|15|안산시
45670100|16|안성시
43172800|17|안양시
48270900|18|양주시
47670300|19|양평군
46970400|20|여주군
48670100|21|연천군
44770100|22|오산시
44970400|23|용인시
43770100|24|의왕시
48070300|25|의정부시
46771700|26|이천시
41371900|27|파주시
45070200|28|평택시
48770100|29|포천시
46570100|30|하남시
44570200|31|화성시
10000000|32|서울특별시
28000000|33|인천광역시